{
    "identityPoolName": "dynalogappc4dea353_identitypool_c4dea353",
    "allowUnauthenticatedIdentities": true,
    "openIdLambdaRoleName": "dynaloc4dea353_openid_lambda_role",
    "resourceNameTruncated": "dynaloc4dea353",
    "userPoolName": "dynalogappc4dea353_userpool_c4dea353",
    "autoVerifiedAttributes": [
        "email"
    ],
    "mfaConfiguration": "OFF",
    "mfaTypes": [
        "SMS Text Message"
    ],
    "smsAuthenticationMessage": "Your authentication code is {####}",
    "smsVerificationMessage": "Your verification code is {####}",
    "emailVerificationSubject": "Your verification code",
    "emailVerificationMessage": "Your verification code is {####}",
    "defaultPasswordPolicy": false,
    "passwordPolicyMinLength": 8,
    "passwordPolicyCharacters": [],
    "requiredAttributes": [
        "email"
    ],
    "userpoolClientName": "dynaloc4dea353_app_client",
    "userpoolClientGenerateSecret": true,
    "userpoolClientRefreshTokenValidity": 30,
    "userpoolClientWriteAttributes": [
        "email"
    ],
    "userpoolClientReadAttributes": [
        "email"
    ],
    "mfaLambdaRole": "dynaloc4dea353_totp_lambda_role",
    "userpoolClientLambdaRole": "dynaloc4dea353_userpoolclient_lambda_role",
    "userpoolClientSetAttributes": false,
    "resourceName": "dynalogappc4dea353",
    "authSelections": "identityPoolAndUserPool",
    "authRoleName": {
        "Ref": "AuthRoleName"
    },
    "unauthRoleName": {
        "Ref": "UnauthRoleName"
    },
    "authRoleArn": {
        "Fn::GetAtt": [
            "AuthRole",
            "Arn"
        ]
    },
    "unauthRoleArn": {
        "Fn::GetAtt": [
            "UnauthRole",
            "Arn"
        ]
    },
    "useDefault": "default",
    "usernameAttributes": [
        "email"
    ],
    "additionalQuestions": [],
    "dependsOn": []
}